[
  {
    "gemsNumber": 0,
    "name": "Lazurite",
    "origin": "England",
    "preciousness": "Semiprecious",
    "parameters": {
      "color": "Blue",
      "transparency": 21,
      "facesNumber": 1
    },
    "value": 4
  },
  {
    "gemsNumber": 1,
    "name": "Onix",
    "origin": "Germany",
    "preciousness": "Semiprecious",
    "parameters": {
      "color": "Black",
      "transparency": 55,
      "facesNumber": 4
    },
    "value": 5
  },
  {
    "gemsNumber": 2,
    "name": "Nephrit",
    "origin": "Russia",
    "preciousness": "Semiprecious",
    "parameters": {
      "color": "Grey",
      "transparency": 89,
      "facesNumber": 10
    },
    "value": 10
  },
  {
    "gemsNumber": 3,
    "name": "Rubin",
    "origin": "Thailand",
    "preciousness": "Precious",
    "parameters": {
      "color": "Red",
      "transparency": 21,
      "facesNumber": 10
    },
    "value": 1
  },
  {
    "gemsNumber": 4,
    "name": "Smaragd",
    "origin": "Brazil",
    "preciousness": "Precious",
    "parameters": {
      "color": "Green",
      "transparency": 21,
      "facesNumber": 4
    },
    "value": 16
  },
  {
    "gemsNumber": 5,
    "name": "Diamond",
    "origin": "Africa",
    "preciousness": "Precious",
    "parameters": {
      "color": "Yellow",
      "transparency": 11,
      "facesNumber": 90
    },
    "value": 6
  }
]